<svg xmlns="http://www.w3.org/2000/svg" width="20" height="20" viewBox="0 0 20 20">
    <defs>
        <clipPath id="65uxa">
            <path d="M0 0h20v20H0z"/>
        </clipPath>
    </defs>
    <g>
        <g opacity="1">
            <g opacity="1"/>
            <g clip-path="url(#65uxa)" opacity=".75">
                <path fill="#fff"
                      d="M17.086 2.906A9.827 9.827 0 0 1 20 9.918c-.002 5.464-4.47 9.91-9.958 9.91h-.004a9.987 9.987 0 0 1-4.759-1.206L0 20l1.413-5.136A9.857 9.857 0 0 1 .083 9.91C.086 4.446 4.553 0 10.042 0a9.917 9.917 0 0 1 7.044 2.906m-7.04 15.248c4.566 0 8.28-3.695 8.283-8.237 0-2.2-.86-4.27-2.424-5.827a8.248 8.248 0 0 0-5.855-2.416c-4.568 0-8.283 3.695-8.285 8.236 0 1.557.437 3.073 1.266 4.384l.197.312-.837 3.04 3.135-.818.302.178a8.303 8.303 0 0 0 4.215 1.148h.004m4.535-6.162c.249.124.415.186.477.29.062.103.062.6-.145 1.179-.208.579-1.202 1.107-1.68 1.178-.429.064-.971.09-1.567-.098a14.324 14.324 0 0 1-1.419-.522c-2.496-1.074-4.126-3.578-4.25-3.743-.125-.166-1.016-1.344-1.016-2.565 0-1.22.643-1.82.87-2.068a.916.916 0 0 1 .664-.31c.166 0 .332.002.477.009.153.008.358-.058.56.425.207.497.705 1.717.767 1.841.062.124.104.269.02.434-.082.166-.124.27-.248.414-.124.145-.261.323-.373.434-.125.124-.254.258-.11.506.146.248.645 1.06 1.385 1.717.95.845 1.752 1.107 2 1.23.25.125.395.104.54-.061.145-.166.622-.724.788-.972.166-.248.332-.207.56-.124.228.083 1.451.682 1.7.806"/>
            </g>
        </g>
    </g>
</svg>